1;Rammstein;"Wollt ihr das Bett in Flammen sehen?";Herzeleid;1997;5:18;
2;Rammstein;"Der Meister";Herzeleid;1997;4:08;
3;Rammstein;"Weißes Fleisch";Herzeleid;1997;3:36;
4;Rammstein;"Asche zu Asche";Herzeleid;1997;3:51;
5;Rammstein;"Seemann";Herzeleid;1997;4:48;
6;Rammstein;"Du riechst so gut";Herzeleid;1997;4:49;

// todo

7 Rammstein "Das alte Leid"   Herzeleid 1997  5:44
8 Rammstein "Heirate mich"  Herzeleid 1997  4:44
9 Rammstein "Herzeleid" Herzeleid 1997  3:41
10  Rammstein "Laichzeit"   Herzeleid 1997  4:21
11  Rammstein "Rammstein"   Herzeleid 1997  4:25
12  Rammstein "Mein Teil" Reise, Reise  2004  4:32
13  Rammstein "Dalai Lama"  Reise, Reise  2004  5:39
14  Rammstein "Keine Lust"  Reise, Reise  2004  3:43
15  Rammstein "Los" Reise, Reise  2004  4:25
16  Rammstein "Amerika" Reise, Reise  2004  3:47
17  Rammstein "Moskau"  Reise, Reise  2004  4:16
18  Rammstein "Morgenstern" Reise, Reise  2004  4:00
19  Rammstein "Stein um Stein"  Reise, reise  2004  3:56
20  Oxxxymiron  "Не с начала" Горгород  2015  2:05
21  Oxxxymiron  "Кем ты стал" Горгород  2015  3:56
22  Oxxxymiron  "Всего лишь писатель" Горгород  2015  3:29
23  Oxxxymiron  "Девочка 3,14здец"  Горгород  2015  2:43
24  Oxxxymiron  "Переплетено" Горгород  2015  4:51
25  Oxxxymiron  "Колыбельная" Горгород  2015  3:17
26  Oxxxymiron  "Полигон" Горгород  2015  3:40
27  Oxxxymiron  "Накануне"  Горгород  2015  3:41
28  Oxxxymiron  "Слово мэра"  Горгород  2015  4:00
29  Oxxxymiron  "Башня из слоновой кости" Горгород  2015  3:24
30  Oxxxymiron  "Где нас нет" Горгород  2011  4:25
31  Oxxxymiron  "Спонтанное самовозгорание" Вечный жид  2011  2:31
32  Oxxxymiron  "CCTV"  Вечный жид  2011  2:16
33  Oxxxymiron  "До сих пор МС" Вечный жид  2011  3:23
34  Oxxxymiron  "Привет со дна" Вечный жид  2011  5:04
35  Oxxxymiron  "Вечный жид"  Вечный жид  2011  2:32
36  Oxxxymiron  "В бульбуляторе"  Вечный жид  2011  2:46
37  Oxxxymiron  "Судьба моралиста"  Вечный жид  2011  1:52
38  Oxxxymiron  "Цифры и цвета" Вечный жид  2011  2:40
39  Oxxxymiron  "Russky Cockney"  Вечный жид  2011  2:39
40  Oxxxymiron  "В говне" Вечный жид  2011  2:29
41  Oxxxymiron  "Крокодиловы слёзы" Вечный жид  2011  2:40
42  Oxxxymiron  "Жук в муравейнике" Вечный жид  2011  4:00
43  Скриптонит  "Дома"  Дом с нормальными явлениями 2015  3:32
44  Скриптонит  "Оставь это нам"  Дом с нормальными явлениями 2015  1:40
45  Скриптонит  "Вниз"  Дом с нормальными явлениями 2015  3:44
46  Скриптонит  "Коньяк"  Дом с нормальными явлениями 2015  2:21
47  Скриптонит  "Океан" Дом с нормальными явлениями 2015  3:37
48  Скриптонит  "Притон"  Дом с нормальными явлениями 2015  3:55
49  Скриптонит  "Танцуй сама" Дом с нормальными явлениями 2015  4:36
50  Скриптонит  "На должном"  Дом с нормальными явлениями 2015  3:24
51  Скриптонит  "Сука тащит нас на дно" Дом с нормальными явлениями 2015  6:50
52  Скриптонит  "Сны" Дом с нормальными явлениями 2015  4:00
53  Скриптонит  "100 поцелуев"  Дом с нормальными явлениями 2015  2:35
54  Скриптонит  "Бумажки" Дом с нормальными явлениями 2015  5:22
55  Скриптонит  "Лям" Дом с нормальными явлениями 2015  4:36
56  Скриптонит  "Стиль"   Дом с нормальными явлениями 2015  6:47
57  Скриптонит  "Я не улыбаюсь"   Дом с нормальными явлениями 2015  4:40
58  Скриптонит  "Вечеринка" Дом с нормальными явлениями 2015  6:03
59  Скриптонит  "Это любовь"  Дом с нормальными явлениями 2015  4:05
60  Скриптонит  "Капли вниз по бёдрам"  Праздник на улице 36  2017  3:52
61  Скриптонит  "Напомни" Праздник на улице 36  2017  3:21
62  Скриптонит  "104" (скит)  Праздник на улице 36  2017  1:13
63  Скриптонит  "Цепи" (при уч. 104)  Праздник на улице 36  2017  3:27
64  Скриптонит  "Точно не нужно новых"  Праздник на улице 36  2017  4:05
65  Скриптонит  "Поворот" (при уч. Niman) Праздник на улице 36  2017  4:04
66  Скриптонит  "Первый" (при уч. Баста)  Праздник на улице 36  2017  3:57
67  Скриптонит  "Ага, ну" Праздник на улице 36  2017  3:07
68  Скриптонит  "Вечеринка" (другая версия) Праздник на улице 36  2017  4:12
69  Скриптонит  "Не забирай меня с пати"  Праздник на улице 36  2017  3:57
70  Скриптонит  "Темно" Праздник на улице 36  2017  2:50
71  Скриптонит  "Оставь их" Праздник на улице 36  2017  5:10
72  Скриптонит  "Outro" (при уч. 104 и Benz)  Праздник на улице 36  2017  2:33
73  Скриптонит  "Интро / Время возвращаться"  Уроборос-Улица 36 2017  5:29
74  Скриптонит  "Животные"  Уроборос-Улица 36 2017  3:02
75  Скриптонит  "Мистер 718"  Уроборос-Улица 36 2017  3:46
76  Скриптонит  "Пацан" Уроборос-Улица 36 2017  2:57
77  Скриптонит  "Сливочное масло" Уроборос-Улица 36 2017  4:16
78  Скриптонит  "Положение" Уроборос-Улица 36 2017  4:42
79  Скриптонит  "Внатуре" Уроборос-Улица 36 2017  4:12
80  Скриптонит  "Мистер 718 2" (ft. Niman)  Уроборос-Улица 36 2017  3:20
81  Скриптонит  "Твой микстейп" (скит)  Уроборос-Улица 36 2017  1:45
82  Скриптонит  "Трата времени" Уроборос-Улица 36 2017  3:37
83  Скриптонит  "Интро '15" Уроборос-зеркала  2017  1:11
84  Скриптонит  "Братик"  Уроборос-зеркала  2017  2:11
85  Скриптонит  "Интервью"  Уроборос-зеркала  2017  2:56
86  Скриптонит  "1000"  Уроборос-зеркала  2017  4:04
87  Скриптонит  "Лучше всех"  Уроборос-зеркала  2017  4:27
88  Скриптонит  "О счастливчик" (ft. 104) Уроборос-зеркала  2017  3:12
89  Скриптонит  "Слюни" Уроборос-зеркала  2017  5:27
90  Скриптонит  "Братик 2" (ft. 104)  Уроборос-зеркала  2017  4:41
91  Скриптонит  "Зеркала" Уроборос-зеркала  2017  5:05
92  Скриптонит  "Не надо меня узнавать" Уроборос-зеркала  2017  3:43
93  Скриптонит  "Вчера ночью" Уроборос-зеркала  2017  5:18
94  ЛСП "Magic City"  Magic City  2015  1:22
95  ЛСП "Шест"  Magic City  2015  3:18
96  ЛСП "Bullet" (при уч. Pharaoh)  Magic City  2015  3:51
97  ЛСП "Фокус" Magic City  2015  3:40
98  ЛСП "Уровни"  Magic City  2015  3:52
99  ЛСП "ОК"  Magic City  2015  3:02
100 ЛСП "Bankroll" (при уч. Sil-A)  Magic City  2015  3:22
101 ЛСП "Безумие" (ремикс; при уч. Oxxxymiron)  Magic City  2015  3:42
102 ЛСП "Пусть говорят" Magic City  2015  3:30
103 ЛСП "Что-то ещё"  Magic City  2015  3:57
104 ЛСП "Бигги" Magic City  2015  2:54
105 ЛСП "Синее" (бонус) Magic City  2015  3:25
106 ЛСП "Ползать" Tragic City 2017  3:23
107 ЛСП "Монетка" Tragic City 2017  3:20
108 ЛСП "Деньги не проблема"  Tragic City 2017  3:57
109 ЛСП "Тело"  Tragic City 2017  3:45
110 ЛСП "Воскресение" Tragic City 2017  3:01
111 ЛСП "Лабиринт отражений"  Tragic City 2017  2:58
112 ЛСП "Белый танец" Tragic City 2017  4:35
113 ЛСП "Отброс"  Tragic City 2017  2:32
114 ЛСП "Канкан"  Tragic City 2017  4:14
115 ЛСП "Ещё один день" Tragic City 2017  4:04
116 ЛСП "Интерлюдия"  Tragic City 2017  1:06
117 ЛСП "Конец света" Tragic City 2017  5:48
118 ЛСП "Плевок в вечность" (бонус) Tragic City 2017  3:14
119 Eminem  "Curtains Up" (скит)  The eminem show 2002  0:29
120 Eminem  "White America" The eminem show 2002  5:24
121 Eminem  "Business"  The eminem show 2002  4:11
122 Eminem  "Cleanin’ Out My Closet"  The eminem show 2002  4:58
123 Eminem  "Square Dance"  The eminem show 2002  5:23
124 Eminem  "The Kiss" (скит) The eminem show 2002  1:15
125 Eminem  "Soldier" The eminem show 2002  3:46
126 Eminem  "Say Goodbye Hollywood" The eminem show 2002  4:32
127 Eminem  "Drips" (при уч. Obie Trice)  The eminem show 2002  4:45
128 Eminem  "Without Me"  The eminem show 2002  4:50
129 Eminem  "Paul Rosenberg" (скит) The eminem show 2002  0:22
130 Eminem  "Sing for the Moment" The eminem show 2002  5:39
131 Eminem  "Superman" (при уч. Dina Rae) The eminem show 2002  5:50
132 Eminem  "Hailie’s Song" The eminem show 2002  5:20
133 Eminem  "Steve Berman" (скит) The eminem show 2002  0:33
134 Eminem  "When the Music Stops" (при уч. D12)  The eminem show 2002  4:29
135 Eminem  "Say What You Say" (при уч. Dr. Dre)  The eminem show 2002  5:09
136 Eminem  "’Till I Collapse" (при уч. Nate Dogg)  The eminem show 2002  4:57
137 Eminem  "My Dad’s Gone Crazy" (при уч. Hailie Jade) The eminem show 2002  4:27
138 Eminem  "Curtains Close" (скит) The eminem show 2002  1:01
139 Eminem  "Dr. West" (Скит) Relapse 2009  1:29
140 Eminem  "3 a.m."  Relapse 2009  5:19
141 Eminem  "My Mom"  Relapse 2009  5:19
142 Eminem  "Insane"  Relapse 2009  3:01
143 Eminem  "Bagpipes from Baghdad" Relapse 2009  4:43
144 Eminem  "Hello" Relapse 2009  4:08
145 Eminem  "Tonya" (Скит)  Relapse 2009  0:42
146 Eminem  "Same Song & Dance" Relapse 2009  4:06
147 Eminem  "We Made You" Relapse 2009  4:29
148 Eminem  "Medicine Ball" Relapse 2009  3:57
149 Eminem  "Paul" (Скит) Relapse 2009  0:19
150 Eminem  "Stay Wide Awake" Relapse 2009  5:20
151 Eminem  "Old Time’s Sake" (при уч. Dr. Dre) Relapse 2009  4:38
152 Eminem  "Must Be the Ganja" Relapse 2009  4:02
153 Eminem  "Mr. Mathers" (скит)  Relapse 2009  0:42
154 Eminem  "Déjà Vu" Relapse 2009  4:43
155 Eminem  "Beautiful" Relapse 2009  6:32
156 Eminem  "Crack a Bottle" (при уч. Dr. Dre и 50 Cent)  Relapse 2009  4:57
157 Eminem  "Steve Berman" (Скит) Relapse 2009  1:29
158 Eminem  "Underground/Ken Kaniff"  Relapse 2009  6:11
159         